{

  "shortInfo" : false,

  "sourceDB":
  {
    "url": "jdbc:oracle:thin:tisnso_raptor/tisnso@oracle01.dote.ru:1521:orcl",
    "schema": "tisnso_raptor"
  },

  "targetDB":
  {
    "url": "jdbc:postgresql://localhost:5432/eao_raptor?user=eao_raptor&password=eao",
    "schema": "public"
  },

  "tables":
          [
            "(?i)^persons$"
          ],

  "tables2":
          [
            "(?i)^person.*",
            "(?i)^user.*"
          ]

}